@startuml

class MainWindow extends QMainWindow
class QMainWindow extends QWidget

abstract CanvasBase extends QWidget
class CanvasComplex
class Canvas2D
class Canvas3D

class HighlightScrollArea extends QScrollArea
class InformationWindow extends QWidget
class PixmapLabel extends QLabel
class PreviewWindow extends QWidget

class Visualiser extends QWidget

MainWindow *-- "1" CanvasBase

CanvasBase *--- "1" PreviewWindow
CanvasBase *--- "1" InformationWindow
CanvasBase ..> InformationWindow : "<<signal>> changed_coordinates"

CanvasComplex ---|> CanvasBase
CanvasComplex *-r-  "1" Visualiser

Canvas2D ---|> CanvasBase
Canvas2D *-- "1" Visualiser

Canvas3D ---|> CanvasBase
Canvas3D *-- "3" Visualiser

Visualiser *-d- HighlightScrollArea
Visualiser ..> CanvasBase : "<<signal>> position"

HighlightScrollArea *-- PixmapLabel

PreviewWindow ..> CanvasBase : "<<signal>> return_parameters" 

PixmapLabel ..> Visualiser : "<<signal>> mouse_position"

@enduml